…
p1_data = p1_data_raw %>% 
  unnest() %>% 
  separate(subject_id, into = c("arm", "subject_id"), sep = "_") %>% 
  separate(subject_id, into = c("subject_id", "suffix")) %>% 
  gather(key = "week", value = "obs_value", week_1:week_8) %>% 
  separate(week, into = c("trash", "week"), sep = "_") %>% 
  mutate(week = as.numeric(week)) %>% 
  select(subject_id, arm_type = arm, week, obs_value) %>% 
  arrange(arm_type, subject_id)

p1_data
```

    ## # A tibble: 160 x 4
    ##    subject_id arm_type  week obs_value
    ##    <chr>      <chr>    <dbl>     <dbl>
    ##  1 01         con          1      0.2 
    ##  2 01         con          2     -1.31
    ##  3 01         con          3      0.66
    ##  4 01         con          4      1.96
    ##  5 01         con          5      0.23
    ##  6 01         con          6      1.09
    ##  7 01         con          7      0.05
    ##  8 01         con          8      1.94
    ##  9 02         con          1      1.13
    ## 10 02         con          2     -0.88
    ## # ... with 150 more rows
…
unsolved_num = homi %>% 
  filter(disposition == "Closed without arrest" | disposition == "Open/No arrest") %>% 
  group_by(city_state) %>% 
  summarise(unsolved_num = n()) %>% 
  ungroup()

total_num
```

    ## # A tibble: 50 x 2
    ##    city_state      total_num
    ##    <chr>               <int>
    ##  1 Albuquerque, NM       378
    ##  2 Atlanta, GA           973
    ##  3 Baltimore, MD        2827
    ##  4 Baton Rouge, LA       424
    ##  5 Birmingham, AL        800
    ##  6 Boston, MA            614
    ##  7 Buffalo, NY           521
    ##  8 Charlotte, NC         687
    ##  9 Chicago, IL          5535
    ## 10 Cincinnati, OH        694
    ## # ... with 40 more rows

``` r
unsolved_num
```

    ## # A tibble: 50 x 2
    ##    city_state      unsolved_num
    ##    <chr>                  <int>
    ##  1 Albuquerque, NM          146
    ##  2 Atlanta, GA              373
    ##  3 Baltimore, MD           1825
    ##  4 Baton Rouge, LA          196
    ##  5 Birmingham, AL           347
    ##  6 Boston, MA               310
    ##  7 Buffalo, NY              319
    ##  8 Charlotte, NC            206
    ##  9 Chicago, IL             4073
    ## 10 Cincinnati, OH           309
    ## # ... with 40 more rows
…
Here is the proportion of unsolved homicides and the confidence interval for all 50 cities.

``` r
total_prop_test = map2(unsolved_num$unsolved_num, total_num$total_num, prop.test) 

total_prop = total_num %>% 
  mutate(z = map(total_prop_test, broom::tidy)) %>% 
  unnest() %>% 
  select(city_state, estimate, conf.low, conf.high)

total_prop
```

    ## # A tibble: 50 x 4
    ##    city_state      estimate conf.low conf.high
    ##    <chr>              <dbl>    <dbl>     <dbl>
    ##  1 Albuquerque, NM    0.386    0.337     0.438
    ##  2 Atlanta, GA        0.383    0.353     0.415
    ##  3 Baltimore, MD      0.646    0.628     0.663
    ##  4 Baton Rouge, LA    0.462    0.414     0.511
    ##  5 Birmingham, AL     0.434    0.399     0.469
    ##  6 Boston, MA         0.505    0.465     0.545
    ##  7 Buffalo, NY        0.612    0.569     0.654
    ##  8 Charlotte, NC      0.300    0.266     0.336
    ##  9 Chicago, IL        0.736    0.724     0.747
    ## 10 Cincinnati, OH     0.445    0.408     0.483
    ## # ... with 40 more rows
…
